<svg width="34" height="26" viewBox="0 0 34 26" fill="none" xmlns="http://www.w3.org/2000/svg">
<g clip-path="url(#clip0)">
<path d="M24.8814 19.0146V19.7922L30.6777 12.5115L24.8814 5.30151V5.93769C24.8814 6.71523 24.2452 7.35141 23.4677 7.35141H16.4698C14.844 7.35141 12.582 7.9169 11.3804 8.9065C12.0165 9.75474 12.6527 10.6737 13.6423 12.2994C14.7026 14.1373 14.5612 14.4907 15.056 15.1976C16.6111 17.3888 20.6402 17.4595 23.397 17.4595C24.3159 17.6009 24.8814 18.2371 24.8814 19.0146Z" fill="#66D3B9"/>
<path d="M0.706787 5.37207V19.58C0.706787 19.58 10.3201 19.58 12.37 19.58C15.6215 19.58 17.2473 17.8835 17.2473 17.8835" stroke="#1A3066" stroke-width="1.5" stroke-miterlimit="10" stroke-linecap="round" stroke-linejoin="round"/>
<path d="M0.777588 5.37207C0.777588 5.37207 2.33268 5.37207 4.73601 5.37207C7.13933 5.37207 9.61335 6.78579 11.0978 8.55294C12.5822 10.3201 15.763 16.6112 17.3181 17.8128C18.8732 19.0145 20.499 19.7213 23.5385 19.7213C23.5385 21.2057 23.5385 24.4573 23.5385 24.4573L33.2932 12.5114L23.4678 0.706787V5.30138C23.4678 5.30138 18.5198 5.30138 16.4699 5.30138C14.42 5.30138 11.8753 5.79618 10.1788 7.42196" stroke="#1A3066" stroke-width="1.5" stroke-miterlimit="10" stroke-linecap="round" stroke-linejoin="round"/>
</g>
<defs>
<clipPath id="clip0">
<rect width="34" height="25.0936" fill="white"/>
</clipPath>
</defs>
</svg>
